<?xml version="1.0" encoding="UTF-8" standalone="no"?>
<!-- Created with Inkscape (http://www.inkscape.org/) -->

<svg
   xmlns:dc="http://purl.org/dc/elements/1.1/"
   xmlns:cc="http://creativecommons.org/ns#"
   xmlns:rdf="http://www.w3.org/1999/02/22-rdf-syntax-ns#"
   xmlns:svg="http://www.w3.org/2000/svg"
   xmlns="http://www.w3.org/2000/svg"
   xmlns:sodipodi="http://sodipodi.sourceforge.net/DTD/sodipodi-0.dtd"
   xmlns:inkscape="http://www.inkscape.org/namespaces/inkscape"
   width="450mm"
   height="130mm"
   viewBox="0 0 450 130"
   version="1.1"
   id="svg876"
   inkscape:version="0.92.2 2405546, 2018-03-11"
   sodipodi:docname="logo_white.svg">
  <defs
     id="defs870" />
  <sodipodi:namedview
     id="base"
     pagecolor="#ffffff"
     bordercolor="#666666"
     borderopacity="1.0"
     inkscape:pageopacity="0.0"
     inkscape:pageshadow="2"
     inkscape:zoom="0.35355339"
     inkscape:cx="895.7834"
     inkscape:cy="10.428636"
     inkscape:document-units="mm"
     inkscape:current-layer="layer3"
     showgrid="false"
     inkscape:snap-bbox="false"
     inkscape:bbox-paths="false"
     inkscape:bbox-nodes="false"
     inkscape:snap-bbox-edge-midpoints="false"
     width="400mm"
     inkscape:window-width="1600"
     inkscape:window-height="848"
     inkscape:window-x="0"
     inkscape:window-y="28"
     inkscape:window-maximized="1" />
  <metadata
     id="metadata873">
    <rdf:RDF>
      <cc:Work
         rdf:about="">
        <dc:format>image/svg+xml</dc:format>
        <dc:type
           rdf:resource="http://purl.org/dc/dcmitype/StillImage" />
        <dc:title />
      </cc:Work>
    </rdf:RDF>
  </metadata>
  <g
     inkscape:label="Layer 1"
     inkscape:groupmode="layer"
     id="layer1"
     transform="translate(0,-167)">
    <g
       inkscape:groupmode="layer"
       id="layer3"
       inkscape:label="logo"
       style="display:inline">
      <rect
         style="display:none;opacity:1;fill:#000000;fill-opacity:1;stroke:none;stroke-width:0.02989792;stroke-linecap:round;stroke-linejoin:round;stroke-miterlimit:4;stroke-dasharray:none;stroke-dashoffset:0;stroke-opacity:1;paint-order:markers fill stroke"
         id="rect2117"
         width="651.93335"
         height="405.34167"
         x="-106.89166"
         y="11.250012" />
    </g>
    <g
       id="g2049"
       inkscape:label="logo"
       transform="matrix(0.69818542,0,0,0.74795233,15.224718,160.7476)">
      <path
         inkscape:label="d4"
         sodipodi:nodetypes="ccccccsc"
         inkscape:connector-curvature="0"
         id="path1988"
         transform="scale(0.26458333)"
         d="M 203.15039,470.70117 220,502.51953 v 65 c 30.09952,12.16487 64.6395,14.31524 100.66602,0 v -65 l 16.52148,-31.19726 c -18.65462,3.90497 -41.23845,6.19531 -65.58594,6.19531 -25.60903,0 -49.26561,-2.53447 -68.45117,-6.81641 z"
         style="display:inline;opacity:1;vector-effect:none;fill:#ffffff;fill-opacity:1;stroke:none;stroke-width:0.11338583;stroke-linecap:butt;stroke-linejoin:miter;stroke-miterlimit:4;stroke-dasharray:none;stroke-dashoffset:0;stroke-opacity:1" />
      <path
         inkscape:label="e3"
         inkscape:connector-curvature="0"
         id="path2026"
         transform="scale(0.26458333)"
         d="m 153.52148,376.98242 41.82813,78.98828 c 20.1859,5.19195 46.261,8.32618 74.75195,8.32618 28.74719,0 55.03103,-3.19277 75.29102,-8.46876 l 41.55469,-78.46874 c -28.98138,8.51907 -70.24152,13.85156 -116.06055,13.85156 -46.50016,0 -88.32605,-5.48692 -117.36524,-14.22852 z"
         style="display:inline;opacity:1;vector-effect:none;fill:#71b20f;fill-opacity:1;stroke:none;stroke-width:0.11338583;stroke-linecap:butt;stroke-linejoin:miter;stroke-miterlimit:4;stroke-dasharray:none;stroke-dashoffset:0;stroke-opacity:1" />
      <path
         sodipodi:nodetypes="ccscccc"
         sodipodi:insensitive="true"
         inkscape:label="e2"
         inkscape:connector-curvature="0"
         id="path2008"
         transform="scale(0.26458333)"
         d="m 94.271484,265.09766 49.800786,94.04101 c 29.09823,9.9681 73.79755,16.35938 123.95898,16.35938 53.57307,0 100.9118,-7.29034 129.66797,-18.44336 l 46.52148,-87.84571 c -35.7926,14.6852 -100.53535,23.69151 -170.47656,23.71485 -76.79801,-0.0219 -146.67162,-10.85542 -179.472656,-27.82617 z"
         style="display:inline;opacity:1;fill:#ffffff;fill-opacity:1;stroke:none;stroke-width:0.09566521;stroke-linecap:round;stroke-linejoin:round;stroke-miterlimit:4;stroke-dasharray:none;stroke-dashoffset:0;stroke-opacity:1;paint-order:markers fill stroke" />
      <path
         sodipodi:insensitive="true"
         style="display:inline;opacity:1;fill:#ffffff;fill-opacity:1;stroke:#89af38;stroke-width:0.02989792;stroke-linecap:round;stroke-linejoin:round;stroke-miterlimit:4;stroke-dasharray:none;stroke-dashoffset:0;stroke-opacity:1;paint-order:markers fill stroke"
         d="M 124.06783,60.682667 A 52.584476,12.851191 0 0 1 71.48336,73.533858 52.584476,12.851191 0 0 1 18.898883,60.682667 52.584476,12.851191 0 0 1 71.48336,47.831477 a 52.584476,12.851191 0 0 1 52.58447,12.85119 z"
         id="path2004"
         inkscape:connector-curvature="0"
         inkscape:label="e1" />
    </g>
    <g
       aria-label="trichter.cc"
       style="font-style:normal;font-variant:normal;font-weight:normal;font-stretch:normal;font-size:10.58333302px;line-height:1.25;font-family:'Varela Round';-inkscape-font-specification:'Varela Round';letter-spacing:0px;word-spacing:0px;fill:#ffffff;fill-opacity:1;stroke:none;stroke-width:0.26458332"
       id="text2053">
      <path
         d="m 134.54946,255.76026 q -2.61056,0 -4.62139,-0.74083 -1.97556,-0.77611 -3.35139,-2.15195 -1.34055,-1.41111 -2.04611,-3.38666 -0.70556,-1.97556 -0.70556,-4.40973 V 226.1622 h -3.10444 q -0.84667,0 -1.44639,-0.52916 -0.59972,-0.56445 -0.59972,-1.62278 v -4.26861 l 5.82083,-1.12889 2.15195,-8.92528 q 0.42333,-1.69333 2.39889,-1.69333 h 5.715 v 10.68917 h 8.89 v 7.47888 h -8.89 v 18.16806 q 0,1.27 0.59972,2.11667 0.635,0.81139 1.79916,0.81139 0.59973,0 0.98778,-0.10584 0.42334,-0.14111 0.70556,-0.28222 0.3175,-0.17639 0.56444,-0.28222 0.28222,-0.14111 0.635,-0.14111 0.49389,0 0.77611,0.24694 0.3175,0.21167 0.635,0.70556 l 3.31611,5.18583 q -2.11666,1.5875 -4.7625,2.39889 -2.64583,0.77611 -5.46805,0.77611 z"
         style="font-style:normal;font-variant:normal;font-weight:900;font-stretch:normal;font-family:Lato;-inkscape-font-specification:'Lato Heavy';fill:#ffffff"
         id="path2119"
         inkscape:connector-curvature="0" />
      <path
         d="m 149.95813,255.19582 v -36.58306 h 6.49111 q 0.81139,0 1.34056,0.14111 0.56444,0.14111 0.91722,0.45861 0.38806,0.28222 0.56445,0.77611 0.21166,0.49389 0.35277,1.19945 l 0.59973,3.42194 q 2.01083,-3.10444 4.51555,-4.90361 2.50472,-1.79917 5.46806,-1.79917 2.50472,0 4.02166,1.19945 l -1.41111,8.04333 q -0.14111,0.74084 -0.56444,1.05834 -0.42334,0.28222 -1.12889,0.28222 -0.59972,0 -1.41111,-0.14111 -0.81139,-0.17639 -2.04611,-0.17639 -4.30389,0 -6.77334,4.58611 v 22.43667 z"
         style="font-style:normal;font-variant:normal;font-weight:900;font-stretch:normal;font-family:Lato;-inkscape-font-specification:'Lato Heavy';fill:#ffffff"
         id="path2121"
         inkscape:connector-curvature="0" />
      <path
         d="m 190.32363,218.61276 v 36.58306 h -10.93611 v -36.58306 z m 1.27,-10.01889 q 0,1.30528 -0.52917,2.46944 -0.52916,1.12889 -1.44639,2.01084 -0.91722,0.84667 -2.15194,1.37583 -1.19945,0.49389 -2.57528,0.49389 -1.34055,0 -2.50472,-0.49389 -1.16417,-0.52916 -2.08139,-1.37583 -0.88194,-0.88195 -1.41111,-2.01084 -0.49389,-1.16416 -0.49389,-2.46944 0,-1.34056 0.49389,-2.50472 0.52917,-1.16417 1.41111,-2.04611 0.91722,-0.88195 2.08139,-1.37584 1.16417,-0.49389 2.50472,-0.49389 1.37583,0 2.57528,0.49389 1.23472,0.49389 2.15194,1.37584 0.91723,0.88194 1.44639,2.04611 0.52917,1.16416 0.52917,2.50472 z"
         style="font-style:normal;font-variant:normal;font-weight:900;font-stretch:normal;font-family:Lato;-inkscape-font-specification:'Lato Heavy';fill:#ffffff"
         id="path2123"
         inkscape:connector-curvature="0" />
      <path
         d="m 225.54187,227.29109 q -0.49389,0.59973 -0.9525,0.9525 -0.45861,0.35278 -1.30527,0.35278 -0.81139,0 -1.48167,-0.38805 -0.635,-0.38806 -1.44639,-0.84667 -0.81139,-0.49389 -1.905,-0.88195 -1.09361,-0.38805 -2.71639,-0.38805 -2.01083,0 -3.4925,0.74083 -1.44639,0.74084 -2.39889,2.11667 -0.9525,1.37583 -1.41111,3.38667 -0.45861,1.97555 -0.45861,4.48027 0,5.25639 2.01083,8.07861 2.04611,2.82223 5.60917,2.82223 1.905,0 2.99861,-0.45861 1.12889,-0.49389 1.905,-1.05834 0.77611,-0.59972 1.41111,-1.09361 0.67028,-0.49389 1.65806,-0.49389 1.30528,0 1.97555,0.9525 l 3.175,3.91584 q -1.69333,1.94027 -3.56305,3.175 -1.86972,1.19944 -3.84528,1.905 -1.94028,0.67027 -3.91583,0.91722 -1.97556,0.28222 -3.84528,0.28222 -3.35139,0 -6.42056,-1.27 -3.03389,-1.27 -5.36222,-3.66889 -2.29306,-2.43417 -3.66889,-5.96194 -1.34055,-3.52778 -1.34055,-8.04334 0,-3.95111 1.16416,-7.37305 1.19945,-3.45722 3.4925,-5.96195 2.32834,-2.54 5.715,-3.98639 3.42195,-1.44638 7.90222,-1.44638 4.30389,0 7.54945,1.37583 3.24556,1.37583 5.85611,4.02167 z"
         style="font-style:normal;font-variant:normal;font-weight:900;font-stretch:normal;font-family:Lato;-inkscape-font-specification:'Lato Heavy';fill:#ffffff"
         id="path2125"
         inkscape:connector-curvature="0" />
      <path
         d="m 233.46725,255.19582 v -52.81084 h 10.93611 v 19.43806 q 1.97556,-1.69334 4.26861,-2.71639 2.32834,-1.05833 5.53861,-1.05833 2.99862,0 5.29167,1.05833 2.32833,1.02305 3.91583,2.89278 1.5875,1.83444 2.39889,4.40972 0.81139,2.54 0.81139,5.53861 v 23.24806 h -10.93611 v -23.24806 q 0,-2.68111 -1.23472,-4.16278 -1.23472,-1.51694 -3.63361,-1.51694 -1.79917,0 -3.38667,0.77611 -1.5875,0.77611 -3.03389,2.08139 v 26.07028 z"
         style="font-style:normal;font-variant:normal;font-weight:900;font-stretch:normal;font-family:Lato;-inkscape-font-specification:'Lato Heavy';fill:#ffffff"
         id="path2127"
         inkscape:connector-curvature="0" />
      <path
         d="m 287.23609,255.76026 q -2.61056,0 -4.62139,-0.74083 -1.97556,-0.77611 -3.35139,-2.15195 -1.34055,-1.41111 -2.04611,-3.38666 -0.70556,-1.97556 -0.70556,-4.40973 V 226.1622 h -3.10444 q -0.84667,0 -1.44639,-0.52916 -0.59972,-0.56445 -0.59972,-1.62278 v -4.26861 l 5.82083,-1.12889 2.15195,-8.92528 q 0.42333,-1.69333 2.39889,-1.69333 h 5.715 v 10.68917 h 8.89 v 7.47888 h -8.89 v 18.16806 q 0,1.27 0.59972,2.11667 0.635,0.81139 1.79916,0.81139 0.59973,0 0.98778,-0.10584 0.42334,-0.14111 0.70556,-0.28222 0.3175,-0.17639 0.56444,-0.28222 0.28222,-0.14111 0.635,-0.14111 0.49389,0 0.77611,0.24694 0.3175,0.21167 0.635,0.70556 l 3.31611,5.18583 q -2.11666,1.5875 -4.7625,2.39889 -2.64583,0.77611 -5.46805,0.77611 z"
         style="font-style:normal;font-variant:normal;font-weight:900;font-stretch:normal;font-family:Lato;-inkscape-font-specification:'Lato Heavy';fill:#ffffff"
         id="path2129"
         inkscape:connector-curvature="0" />
      <path
         d="m 318.3081,218.04832 q 3.63361,0 6.63222,1.12888 3.03389,1.12889 5.18583,3.28084 2.18723,2.15194 3.38667,5.29166 1.23472,3.10445 1.23472,7.05556 0,1.23472 -0.10583,2.01083 -0.10583,0.77611 -0.38806,1.23473 -0.28222,0.45861 -0.77611,0.635 -0.45861,0.17638 -1.19944,0.17638 h -21.09611 q 0.52916,4.58612 2.78694,6.6675 2.25778,2.04612 5.82083,2.04612 1.905,0 3.28084,-0.45862 1.37583,-0.45861 2.43416,-1.02305 1.09362,-0.56445 1.97556,-1.02306 0.91722,-0.45861 1.905,-0.45861 1.30528,0 1.97556,0.9525 l 3.175,3.91584 q -1.69334,1.94027 -3.66889,3.175 -1.94028,1.19944 -4.02167,1.905 -2.04611,0.67027 -4.1275,0.91722 -2.04611,0.28222 -3.91583,0.28222 -3.84528,0 -7.23195,-1.23472 -3.35139,-1.27 -5.89139,-3.73945 -2.50472,-2.46944 -3.98639,-6.13833 -1.44639,-3.66889 -1.44639,-8.53722 0,-3.66889 1.23473,-6.94972 1.27,-3.28084 3.59833,-5.75028 2.36361,-2.46945 5.67972,-3.91584 3.35139,-1.44638 7.54945,-1.44638 z m 0.21166,7.54944 q -3.13972,0 -4.90361,1.79917 -1.76389,1.76389 -2.32833,5.11527 h 13.6525 q 0,-1.30527 -0.35278,-2.54 -0.3175,-1.23472 -1.09361,-2.18722 -0.74083,-0.98778 -1.97555,-1.5875 -1.23473,-0.59972 -2.99862,-0.59972 z"
         style="font-style:normal;font-variant:normal;font-weight:900;font-stretch:normal;font-family:Lato;-inkscape-font-specification:'Lato Heavy';fill:#ffffff"
         id="path2131"
         inkscape:connector-curvature="0" />
      <path
         d="m 341.09203,255.19582 v -36.58306 h 6.49111 q 0.81139,0 1.34056,0.14111 0.56444,0.14111 0.91722,0.45861 0.38805,0.28222 0.56444,0.77611 0.21167,0.49389 0.35278,1.19945 l 0.59972,3.42194 q 2.01084,-3.10444 4.51556,-4.90361 2.50472,-1.79917 5.46805,-1.79917 2.50473,0 4.02167,1.19945 l -1.41111,8.04333 q -0.14111,0.74084 -0.56444,1.05834 -0.42334,0.28222 -1.12889,0.28222 -0.59973,0 -1.41111,-0.14111 -0.81139,-0.17639 -2.04612,-0.17639 -4.30388,0 -6.77333,4.58611 v 22.43667 z"
         style="font-style:normal;font-variant:normal;font-weight:900;font-stretch:normal;font-family:Lato;-inkscape-font-specification:'Lato Heavy';fill:#ffffff"
         id="path2133"
         inkscape:connector-curvature="0" />
      <path
         d="m 369.63948,252.47943 q 0,-0.67028 0.24694,-1.27 0.24695,-0.59973 0.67028,-1.02306 0.45861,-0.45861 1.02305,-0.70555 0.59973,-0.28223 1.30528,-0.28223 0.67028,0 1.27,0.28223 0.59973,0.24694 1.02306,0.70555 0.45861,0.42333 0.70555,1.02306 0.28223,0.59972 0.28223,1.27 0,0.70555 -0.28223,1.30527 -0.24694,0.56445 -0.70555,1.02306 -0.42333,0.42333 -1.02306,0.67028 -0.59972,0.24694 -1.27,0.24694 -1.37583,0 -2.32833,-0.91722 -0.91722,-0.9525 -0.91722,-2.32833 z"
         style="font-style:normal;font-variant:normal;font-weight:300;font-stretch:normal;font-family:Lato;-inkscape-font-specification:'Lato Light';fill:#ffffff"
         id="path2135"
         inkscape:connector-curvature="0" />
      <path
         d="m 408.67544,224.78637 q -0.17639,0.17639 -0.35278,0.3175 -0.14111,0.10583 -0.42333,0.10583 -0.35278,0 -0.98778,-0.45861 -0.59972,-0.49389 -1.62278,-1.05833 -1.02305,-0.56444 -2.57528,-1.02306 -1.51694,-0.49388 -3.70416,-0.49388 -3.03389,0 -5.3975,1.09361 -2.32834,1.05833 -3.95111,3.06916 -1.5875,2.01084 -2.43417,4.86834 -0.84667,2.8575 -0.84667,6.42055 0,3.70417 0.84667,6.56167 0.88194,2.8575 2.46944,4.83305 1.5875,1.94028 3.84528,2.96334 2.25778,1.02305 5.00945,1.02305 2.54,0 4.23333,-0.59972 1.72861,-0.59972 2.82222,-1.30528 1.12889,-0.70555 1.76389,-1.30527 0.67028,-0.59973 1.05833,-0.59973 0.45861,0 0.70556,0.35278 l 0.91722,1.12889 q -0.81139,1.05833 -2.04611,1.97556 -1.23472,0.91722 -2.78694,1.5875 -1.55223,0.67027 -3.38667,1.02305 -1.79917,0.38806 -3.77472,0.38806 -3.35139,0 -6.13834,-1.19945 -2.75166,-1.23472 -4.7625,-3.52778 -1.97555,-2.32833 -3.10444,-5.67972 -1.09361,-3.35139 -1.09361,-7.62 0,-4.02166 1.05833,-7.33778 1.05833,-3.31611 3.06917,-5.715 2.04611,-2.39888 4.97416,-3.70416 2.96334,-1.34056 6.77334,-1.34056 3.42194,0 6.06778,1.09361 2.68111,1.09361 4.65666,2.96334 z"
         style="font-style:normal;font-variant:normal;font-weight:300;font-stretch:normal;font-family:Lato;-inkscape-font-specification:'Lato Light';fill:#ffffff"
         id="path2137"
         inkscape:connector-curvature="0" />
      <path
         d="m 440.78371,224.78637 q -0.17638,0.17639 -0.35277,0.3175 -0.14111,0.10583 -0.42334,0.10583 -0.35277,0 -0.98777,-0.45861 -0.59973,-0.49389 -1.62278,-1.05833 -1.02306,-0.56444 -2.57528,-1.02306 -1.51694,-0.49388 -3.70417,-0.49388 -3.03389,0 -5.3975,1.09361 -2.32833,1.05833 -3.95111,3.06916 -1.5875,2.01084 -2.43417,4.86834 -0.84666,2.8575 -0.84666,6.42055 0,3.70417 0.84666,6.56167 0.88195,2.8575 2.46945,4.83305 1.5875,1.94028 3.84528,2.96334 2.25778,1.02305 5.00944,1.02305 2.54,0 4.23334,-0.59972 1.72861,-0.59972 2.82222,-1.30528 1.12889,-0.70555 1.76389,-1.30527 0.67027,-0.59973 1.05833,-0.59973 0.45861,0 0.70556,0.35278 l 0.91722,1.12889 q -0.81139,1.05833 -2.04611,1.97556 -1.23473,0.91722 -2.78695,1.5875 -1.55222,0.67027 -3.38666,1.02305 -1.79917,0.38806 -3.77473,0.38806 -3.35139,0 -6.13833,-1.19945 -2.75167,-1.23472 -4.7625,-3.52778 -1.97556,-2.32833 -3.10445,-5.67972 -1.09361,-3.35139 -1.09361,-7.62 0,-4.02166 1.05834,-7.33778 1.05833,-3.31611 3.06916,-5.715 2.04611,-2.39888 4.97417,-3.70416 2.96333,-1.34056 6.77333,-1.34056 3.42195,0 6.06778,1.09361 2.68111,1.09361 4.65667,2.96334 z"
         style="font-style:normal;font-variant:normal;font-weight:300;font-stretch:normal;font-family:Lato;-inkscape-font-specification:'Lato Light';fill:#ffffff"
         id="path2139"
         inkscape:connector-curvature="0" />
    </g>
    <g
       aria-label="veranstaltungen für den wandel in leipzig"
       style="font-style:normal;font-variant:normal;font-weight:normal;font-stretch:normal;font-size:10.58333302px;line-height:1.25;font-family:'Varela Round';-inkscape-font-specification:'Varela Round';letter-spacing:0px;word-spacing:0px;fill:#ffffff;fill-opacity:1;stroke:none;stroke-width:0.26458332"
       id="text2061">
      <path
         d="m 132.69914,265.01187 c -0.28575,0 -0.55563,0.17463 -0.65088,0.41275 l -2.42887,6.1595 -2.42888,-6.1595 c -0.0953,-0.23812 -0.36512,-0.41275 -0.65087,-0.41275 -0.39688,0 -0.71438,0.33338 -0.71438,0.73025 0,0.127 0.0318,0.22226 0.0794,0.33338 l 2.76225,6.604 c 0.14287,0.3175 0.47625,0.58738 0.87312,0.58738 h 0.15875 c 0.39688,0 0.73025,-0.26988 0.87313,-0.58738 l 2.76225,-6.604 c 0.0476,-0.11112 0.0794,-0.20638 0.0794,-0.33338 0,-0.39687 -0.3175,-0.73025 -0.71437,-0.73025 z"
         style="font-size:15.875px;fill:#ffffff;stroke-width:0.26458332"
         id="path2142"
         inkscape:connector-curvature="0" />
      <path
         d="m 141.13645,271.44125 c -0.11112,0 -0.1905,0.0159 -0.28575,0.0635 -0.58737,0.30162 -1.19062,0.49212 -2.14312,0.49212 -1.7145,0 -2.61938,-0.92075 -2.77813,-2.3495 h 5.38163 c 0.4445,0 0.73025,-0.31749 0.73025,-0.71437 0,-2.11138 -1.3335,-4.0005 -3.77825,-4.0005 -2.63525,0 -3.79413,2.06375 -3.79413,4.20687 0,2.667 1.524,4.20688 4.11163,4.20688 1.38112,0 2.07962,-0.30163 2.77812,-0.6985 0.22225,-0.127 0.41275,-0.33338 0.41275,-0.58737 0,-0.36513 -0.30162,-0.61913 -0.635,-0.61913 z m -2.87337,-5.28638 c 1.016,0 2.25425,0.66675 2.3495,2.31775 h -4.68313 c 0.0952,-1.651 1.31763,-2.31775 2.33363,-2.31775 z"
         style="font-size:15.875px;fill:#ffffff;stroke-width:0.26458332"
         id="path2144"
         inkscape:connector-curvature="0" />
      <path
         d="m 148.01529,264.9325 h -0.0794 c -1.09537,0 -1.92087,0.73025 -2.49237,1.49225 v -0.68263 c 0,-0.39687 -0.33338,-0.73025 -0.73025,-0.73025 -0.39688,0 -0.71438,0.33338 -0.71438,0.73025 v 6.81038 c 0,0.39687 0.3175,0.71438 0.71438,0.71438 0.39687,0 0.73025,-0.31751 0.73025,-0.71438 v -4.826 c 0.55562,-0.8255 1.41287,-1.397 2.46062,-1.397 h 0.0794 c 0.41275,0 0.73025,-0.26988 0.73025,-0.68262 0,-0.39688 -0.30163,-0.71438 -0.6985,-0.71438 z"
         style="font-size:15.875px;fill:#ffffff;stroke-width:0.26458332"
         id="path2146"
         inkscape:connector-curvature="0" />
      <path
         d="m 153.18607,264.9325 c -1.12712,0 -2.00025,0.254 -2.74637,0.5715 -0.26988,0.11112 -0.41275,0.33337 -0.41275,0.60325 0,0.34925 0.26987,0.60325 0.58737,0.60325 0.0635,0 0.14288,-0.0159 0.20638,-0.0318 0.58737,-0.1905 1.22237,-0.381 2.11137,-0.381 1.42875,0 2.12725,0.55563 2.12725,1.9685 v 0.127 h -1.92087 c -2.4765,0 -3.65125,1.0795 -3.65125,2.57175 0,1.49225 1.2065,2.38125 2.58762,2.38125 1.49225,0 2.413,-0.61913 2.9845,-1.2065 v 0.41275 c 0,0.39687 0.3175,0.71438 0.71438,0.71438 0.39687,0 0.73025,-0.31751 0.73025,-0.71438 v -4.49263 c 0,-1.55575 -1.00013,-3.12737 -3.31788,-3.12737 z m -0.5715,7.14375 c -1.28587,0 -1.68275,-0.58738 -1.68275,-1.27 0,-0.90488 0.90488,-1.25413 2.39713,-1.25413 h 1.73037 v 1.3335 c -0.53975,0.61913 -1.4605,1.19063 -2.44475,1.19063 z"
         style="font-size:15.875px;fill:#ffffff;stroke-width:0.26458332"
         id="path2148"
         inkscape:connector-curvature="0" />
      <path
         d="m 163.34111,264.9325 c -1.41287,0 -2.286,0.73025 -2.95275,1.4605 v -0.65088 c 0,-0.41274 -0.33337,-0.73025 -0.73025,-0.73025 -0.39687,0 -0.71437,0.31751 -0.71437,0.73025 v 6.81038 c 0,0.39687 0.3175,0.71438 0.71437,0.71438 0.39688,0 0.73025,-0.31751 0.73025,-0.71438 V 267.79 c 0.635,-0.79375 1.4605,-1.524 2.6035,-1.524 1.23825,0 1.74625,0.73025 1.74625,1.93675 v 4.34975 c 0,0.39687 0.3175,0.71438 0.71438,0.71438 0.39687,0 0.73025,-0.31751 0.73025,-0.71438 v -4.5085 c 0,-1.69863 -1.03188,-3.1115 -2.84163,-3.1115 z"
         style="font-size:15.875px;fill:#ffffff;stroke-width:0.26458332"
         id="path2150"
         inkscape:connector-curvature="0" />
      <path
         d="m 169.57007,267.36137 c 0,-0.63499 0.65087,-1.11124 1.82562,-1.11124 0.6985,0 1.30175,0.12699 1.80975,0.28574 0.0635,0.0159 0.127,0.0318 0.20638,0.0318 0.36512,0 0.635,-0.30163 0.635,-0.63501 0,-0.23812 -0.15875,-0.508 -0.46038,-0.60324 -0.65087,-0.23813 -1.42875,-0.39688 -2.30187,-0.39688 -2.06375,0 -3.09563,1.0795 -3.09563,2.50825 0,2.88925 4.7625,2.07962 4.7625,3.44487 0,0.71438 -0.53975,1.12713 -1.76212,1.12713 -0.93663,0 -1.5875,-0.22225 -2.159,-0.47625 -0.11113,-0.0476 -0.1905,-0.0635 -0.28575,-0.0635 -0.36513,0 -0.61913,0.3175 -0.61913,0.635 0,0.22225 0.11113,0.41275 0.26988,0.52387 0.80962,0.4445 1.73037,0.71438 2.88925,0.71438 2.032,0 3.06387,-1.06363 3.06387,-2.3495 0,-3.1115 -4.77837,-1.98437 -4.77837,-3.63538 z"
         style="font-size:15.875px;fill:#ffffff;stroke-width:0.26458332"
         id="path2152"
         inkscape:connector-curvature="0" />
      <path
         d="m 180.13587,271.93337 c -0.26987,0 -0.4445,0.14288 -0.9525,0.14288 -0.39687,0 -1.03187,-0.0159 -1.03187,-0.9525 v -4.79425 h 1.79387 c 0.34925,0 0.61913,-0.26988 0.61913,-0.61913 0,-0.34924 -0.26988,-0.61912 -0.61913,-0.61912 h -1.79387 v -1.27 c 0,-0.17463 -0.127,-0.3175 -0.30163,-0.3175 -0.127,0 -0.22225,0.0952 -0.26987,0.14287 l -2.159,2.11138 c -0.0952,0.0794 -0.14288,0.17462 -0.14288,0.26987 0,0.17463 0.127,0.30163 0.30163,0.30163 h 1.12712 v 4.92125 c 0,1.9685 1.57163,2.0955 2.31775,2.0955 0.508,0 0.93663,-0.11113 1.31763,-0.28575 0.22225,-0.11113 0.36512,-0.28575 0.36512,-0.55562 0,-0.33338 -0.28575,-0.57151 -0.5715,-0.57151 z"
         style="font-size:15.875px;fill:#ffffff;stroke-width:0.26458332"
         id="path2154"
         inkscape:connector-curvature="0" />
      <path
         d="m 185.33915,264.9325 c -1.12712,0 -2.00025,0.254 -2.74637,0.5715 -0.26988,0.11112 -0.41275,0.33337 -0.41275,0.60325 0,0.34925 0.26987,0.60325 0.58737,0.60325 0.0635,0 0.14288,-0.0159 0.20638,-0.0318 0.58737,-0.1905 1.22237,-0.381 2.11137,-0.381 1.42875,0 2.12725,0.55563 2.12725,1.9685 v 0.127 h -1.92087 c -2.4765,0 -3.65125,1.0795 -3.65125,2.57175 0,1.49225 1.2065,2.38125 2.58762,2.38125 1.49225,0 2.413,-0.61913 2.9845,-1.2065 v 0.41275 c 0,0.39687 0.3175,0.71438 0.71438,0.71438 0.39687,0 0.73025,-0.31751 0.73025,-0.71438 v -4.49263 c 0,-1.55575 -1.00013,-3.12737 -3.31788,-3.12737 z m -0.5715,7.14375 c -1.28587,0 -1.68275,-0.58738 -1.68275,-1.27 0,-0.90488 0.90488,-1.25413 2.39713,-1.25413 h 1.73037 v 1.3335 c -0.53975,0.61913 -1.4605,1.19063 -2.44475,1.19063 z"
         style="font-size:15.875px;fill:#ffffff;stroke-width:0.26458332"
         id="path2156"
         inkscape:connector-curvature="0" />
      <path
         d="m 191.93819,261.51938 c -0.39688,0 -0.71438,0.3175 -0.71438,0.73024 v 10.30288 c 0,0.39687 0.3175,0.71438 0.71438,0.71438 0.41275,0 0.73025,-0.31751 0.73025,-0.71438 v -10.30288 c 0,-0.41274 -0.3175,-0.73024 -0.73025,-0.73024 z"
         style="font-size:15.875px;fill:#ffffff;stroke-width:0.26458332"
         id="path2158"
         inkscape:connector-curvature="0" />
      <path
         d="m 199.26649,271.93337 c -0.26988,0 -0.4445,0.14288 -0.9525,0.14288 -0.39688,0 -1.03188,-0.0159 -1.03188,-0.9525 v -4.79425 h 1.79388 c 0.34925,0 0.61912,-0.26988 0.61912,-0.61913 0,-0.34924 -0.26987,-0.61912 -0.61912,-0.61912 h -1.79388 v -1.27 c 0,-0.17463 -0.127,-0.3175 -0.30162,-0.3175 -0.127,0 -0.22225,0.0952 -0.26988,0.14287 l -2.159,2.11138 c -0.0953,0.0794 -0.14287,0.17462 -0.14287,0.26987 0,0.17463 0.127,0.30163 0.30162,0.30163 h 1.12713 v 4.92125 c 0,1.9685 1.57162,2.0955 2.31775,2.0955 0.508,0 0.93662,-0.11113 1.31762,-0.28575 0.22225,-0.11113 0.36513,-0.28575 0.36513,-0.55562 0,-0.33338 -0.28575,-0.57151 -0.5715,-0.57151 z"
         style="font-size:15.875px;fill:#ffffff;stroke-width:0.26458332"
         id="path2160"
         inkscape:connector-curvature="0" />
      <path
         d="m 204.19989,273.34625 c 1.41288,0 2.286,-0.73025 2.95275,-1.4605 v 0.65088 c 0,0.41274 0.33338,0.73025 0.73025,0.73025 0.39688,0 0.71438,-0.31751 0.71438,-0.73025 v -6.81038 c 0,-0.39687 -0.3175,-0.71438 -0.71438,-0.71438 -0.39687,0 -0.73025,0.31751 -0.73025,0.71438 v 4.7625 c -0.635,0.79375 -1.4605,1.524 -2.6035,1.524 -1.23825,0 -1.74625,-0.73025 -1.74625,-1.93675 v -4.34975 c 0,-0.39687 -0.3175,-0.71438 -0.71437,-0.71438 -0.39688,0 -0.73025,0.31751 -0.73025,0.71438 v 4.5085 c 0,1.69862 1.03187,3.1115 2.84162,3.1115 z"
         style="font-size:15.875px;fill:#ffffff;stroke-width:0.26458332"
         id="path2162"
         inkscape:connector-curvature="0" />
      <path
         d="m 215.49297,264.9325 c -1.41288,0 -2.286,0.73025 -2.95275,1.4605 v -0.65088 c 0,-0.41274 -0.33338,-0.73025 -0.73025,-0.73025 -0.39688,0 -0.71438,0.31751 -0.71438,0.73025 v 6.81038 c 0,0.39687 0.3175,0.71438 0.71438,0.71438 0.39687,0 0.73025,-0.31751 0.73025,-0.71438 V 267.79 c 0.635,-0.79375 1.4605,-1.524 2.6035,-1.524 1.23825,0 1.74625,0.73025 1.74625,1.93675 v 4.34975 c 0,0.39687 0.3175,0.71438 0.71437,0.71438 0.39688,0 0.73025,-0.31751 0.73025,-0.71438 v -4.5085 c 0,-1.69863 -1.03187,-3.1115 -2.84162,-3.1115 z"
         style="font-size:15.875px;fill:#ffffff;stroke-width:0.26458332"
         id="path2164"
         inkscape:connector-curvature="0" />
      <path
         d="m 227.54805,265.01187 c -0.39688,0 -0.71438,0.33338 -0.71438,0.73025 v 0.39688 c -0.65087,-0.6985 -1.524,-1.2065 -2.71462,-1.2065 -1.76213,0 -3.84175,1.31763 -3.84175,4.1275 0,2.80987 2.07962,4.1275 3.84175,4.1275 1.19062,0 2.06375,-0.508 2.71462,-1.2065 v 1.06362 c 0,1.7145 -0.80962,2.58763 -2.42887,2.58763 -1.0795,0 -1.95263,-0.26988 -2.61938,-0.60325 -0.0794,-0.0317 -0.17462,-0.0635 -0.28575,-0.0635 -0.36512,0 -0.635,0.33337 -0.635,0.65087 0,0.30163 0.127,0.46038 0.28575,0.55563 0.74613,0.42862 2.11138,0.8255 3.39725,0.8255 2.38125,0 3.73063,-1.49225 3.73063,-4.15925 v -7.09613 c 0,-0.39687 -0.33338,-0.73025 -0.73025,-0.73025 z m -0.71438,5.68326 c -0.58737,0.60325 -1.31762,1.17474 -2.413,1.17474 -1.50812,0 -2.69875,-0.90487 -2.69875,-2.80987 0,-1.905 1.19063,-2.80987 2.69875,-2.80987 1.09538,0 1.82563,0.57149 2.413,1.17474 z"
         style="font-size:15.875px;fill:#ffffff;stroke-width:0.26458332"
         id="path2166"
         inkscape:connector-curvature="0" />
      <path
         d="m 236.97556,271.44125 c -0.11112,0 -0.1905,0.0159 -0.28575,0.0635 -0.58737,0.30162 -1.19062,0.49212 -2.14312,0.49212 -1.7145,0 -2.61938,-0.92075 -2.77813,-2.3495 h 5.38163 c 0.4445,0 0.73025,-0.31749 0.73025,-0.71437 0,-2.11138 -1.3335,-4.0005 -3.77825,-4.0005 -2.63525,0 -3.79413,2.06375 -3.79413,4.20687 0,2.667 1.524,4.20688 4.11163,4.20688 1.38112,0 2.07962,-0.30163 2.77812,-0.6985 0.22225,-0.127 0.41275,-0.33338 0.41275,-0.58737 0,-0.36513 -0.30162,-0.61913 -0.635,-0.61913 z m -2.87337,-5.28638 c 1.016,0 2.25425,0.66675 2.3495,2.31775 h -4.68313 c 0.0952,-1.651 1.31763,-2.31775 2.33363,-2.31775 z"
         style="font-size:15.875px;fill:#ffffff;stroke-width:0.26458332"
         id="path2168"
         inkscape:connector-curvature="0" />
      <path
         d="m 244.2354,264.9325 c -1.41287,0 -2.286,0.73025 -2.95275,1.4605 v -0.65088 c 0,-0.41274 -0.33337,-0.73025 -0.73025,-0.73025 -0.39687,0 -0.71437,0.31751 -0.71437,0.73025 v 6.81038 c 0,0.39687 0.3175,0.71438 0.71437,0.71438 0.39688,0 0.73025,-0.31751 0.73025,-0.71438 V 267.79 c 0.635,-0.79375 1.4605,-1.524 2.6035,-1.524 1.23825,0 1.74625,0.73025 1.74625,1.93675 v 4.34975 c 0,0.39687 0.3175,0.71438 0.71438,0.71438 0.39687,0 0.73025,-0.31751 0.73025,-0.71438 v -4.5085 c 0,-1.69863 -1.03188,-3.1115 -2.84163,-3.1115 z"
         style="font-size:15.875px;fill:#ffffff;stroke-width:0.26458332"
         id="path2170"
         inkscape:connector-curvature="0" />
      <path
         d="m 256.98526,262.82112 c 0.30162,0 0.53975,0.0953 0.79375,0.0953 0.33337,0 0.58737,-0.30163 0.58737,-0.60325 0,-0.25401 -0.17462,-0.46038 -0.36512,-0.55563 -0.381,-0.1905 -0.85725,-0.3175 -1.38113,-0.3175 -1.12712,0 -2.38125,0.73025 -2.38125,2.7305 v 0.92075 h -0.93662 c -0.34925,0 -0.61913,0.26988 -0.61913,0.61912 0,0.34925 0.26988,0.61913 0.61913,0.61913 h 0.93662 v 6.223 c 0,0.39687 0.3175,0.71438 0.71438,0.71438 0.41275,0 0.73025,-0.31751 0.73025,-0.71438 v -6.223 h 1.98437 c 0.34925,0 0.61913,-0.26988 0.61913,-0.61913 0,-0.34924 -0.26988,-0.61912 -0.61913,-0.61912 h -1.98437 v -0.87313 c 0,-1.12712 0.508,-1.397 1.30175,-1.397 z"
         style="font-size:15.875px;fill:#ffffff;stroke-width:0.26458332"
         id="path2172"
         inkscape:connector-curvature="0" />
      <path
         d="m 262.4599,273.34625 c 1.41288,0 2.286,-0.73025 2.95275,-1.4605 v 0.65088 c 0,0.41274 0.33338,0.73025 0.73025,0.73025 0.39688,0 0.71438,-0.31751 0.71438,-0.73025 v -6.81038 c 0,-0.39687 -0.3175,-0.71438 -0.71438,-0.71438 -0.39687,0 -0.73025,0.31751 -0.73025,0.71438 v 4.7625 c -0.635,0.79375 -1.4605,1.524 -2.6035,1.524 -1.23825,0 -1.74625,-0.73025 -1.74625,-1.93675 v -4.34975 c 0,-0.39687 -0.3175,-0.71438 -0.71437,-0.71438 -0.39688,0 -0.73025,0.31751 -0.73025,0.71438 v 4.5085 c 0,1.69862 1.03187,3.1115 2.84162,3.1115 z m -0.55562,-10.90612 c -0.4445,0 -0.80963,0.36512 -0.80963,0.80962 0,0.4445 0.36513,0.80962 0.80963,0.80962 0.4445,0 0.80962,-0.36512 0.80962,-0.80962 0,-0.4445 -0.36512,-0.80962 -0.80962,-0.80962 z m 2.68287,0 c -0.4445,0 -0.80962,0.36512 -0.80962,0.80962 0,0.4445 0.36512,0.80962 0.80962,0.80962 0.4445,0 0.80963,-0.36512 0.80963,-0.80962 0,-0.4445 -0.36513,-0.80962 -0.80963,-0.80962 z"
         style="font-size:15.875px;fill:#ffffff;stroke-width:0.26458332"
         id="path2174"
         inkscape:connector-curvature="0" />
      <path
         d="m 273.37198,264.9325 h -0.0794 c -1.09537,0 -1.92087,0.73025 -2.49237,1.49225 v -0.68263 c 0,-0.39687 -0.33338,-0.73025 -0.73025,-0.73025 -0.39688,0 -0.71438,0.33338 -0.71438,0.73025 v 6.81038 c 0,0.39687 0.3175,0.71438 0.71438,0.71438 0.39687,0 0.73025,-0.31751 0.73025,-0.71438 v -4.826 c 0.55562,-0.8255 1.41287,-1.397 2.46062,-1.397 h 0.0794 c 0.41275,0 0.73025,-0.26988 0.73025,-0.68262 0,-0.39688 -0.30163,-0.71438 -0.6985,-0.71438 z"
         style="font-size:15.875px;fill:#ffffff;stroke-width:0.26458332"
         id="path2176"
         inkscape:connector-curvature="0" />
      <path
         d="m 282.96817,264.9325 c -1.92088,0 -3.84175,1.50812 -3.84175,4.20687 0,2.69875 1.92087,4.20688 3.84175,4.20688 1.11125,0 1.98437,-0.4445 2.71462,-1.2065 v 0.41275 c 0,0.39687 0.3175,0.71438 0.73025,0.71438 0.39688,0 0.71438,-0.31751 0.71438,-0.71438 v -10.30288 c 0,-0.41274 -0.3175,-0.73024 -0.71438,-0.73024 -0.41275,0 -0.73025,0.3175 -0.73025,0.73024 v 3.88938 c -0.73025,-0.762 -1.60337,-1.2065 -2.71462,-1.2065 z m 0.20637,7.06437 c -1.50812,0 -2.6035,-0.98424 -2.6035,-2.8575 0,-1.87325 1.09538,-2.85749 2.6035,-2.85749 1.03188,0 1.88913,0.50799 2.50825,1.19062 v 3.33375 c -0.61912,0.68262 -1.47637,1.19062 -2.50825,1.19062 z"
         style="font-size:15.875px;fill:#ffffff;stroke-width:0.26458332"
         id="path2178"
         inkscape:connector-curvature="0" />
      <path
         d="m 295.82469,271.44125 c -0.11113,0 -0.1905,0.0159 -0.28575,0.0635 -0.58738,0.30162 -1.19063,0.49212 -2.14313,0.49212 -1.7145,0 -2.61937,-0.92075 -2.77812,-2.3495 h 5.38162 c 0.4445,0 0.73025,-0.31749 0.73025,-0.71437 0,-2.11138 -1.3335,-4.0005 -3.77825,-4.0005 -2.63525,0 -3.79412,2.06375 -3.79412,4.20687 0,2.667 1.524,4.20688 4.11162,4.20688 1.38113,0 2.07963,-0.30163 2.77813,-0.6985 0.22225,-0.127 0.41275,-0.33338 0.41275,-0.58737 0,-0.36513 -0.30163,-0.61913 -0.635,-0.61913 z m -2.87338,-5.28638 c 1.016,0 2.25425,0.66675 2.3495,2.31775 h -4.68312 c 0.0953,-1.651 1.31762,-2.31775 2.33362,-2.31775 z"
         style="font-size:15.875px;fill:#ffffff;stroke-width:0.26458332"
         id="path2180"
         inkscape:connector-curvature="0" />
      <path
         d="m 303.08452,264.9325 c -1.41287,0 -2.286,0.73025 -2.95275,1.4605 v -0.65088 c 0,-0.41274 -0.33337,-0.73025 -0.73025,-0.73025 -0.39687,0 -0.71437,0.31751 -0.71437,0.73025 v 6.81038 c 0,0.39687 0.3175,0.71438 0.71437,0.71438 0.39688,0 0.73025,-0.31751 0.73025,-0.71438 V 267.79 c 0.635,-0.79375 1.4605,-1.524 2.6035,-1.524 1.23825,0 1.74625,0.73025 1.74625,1.93675 v 4.34975 c 0,0.39687 0.3175,0.71438 0.71438,0.71438 0.39687,0 0.73025,-0.31751 0.73025,-0.71438 v -4.5085 c 0,-1.69863 -1.03188,-3.1115 -2.84163,-3.1115 z"
         style="font-size:15.875px;fill:#ffffff;stroke-width:0.26458332"
         id="path2182"
         inkscape:connector-curvature="0" />
      <path
         d="m 322.59713,265.01187 c -0.28575,0 -0.5715,0.15875 -0.65088,0.42863 l -1.85737,6.11187 -1.8415,-5.969 c -0.0953,-0.33337 -0.41275,-0.5715 -0.77788,-0.5715 -0.36512,0 -0.68262,0.23813 -0.77787,0.5715 l -1.8415,5.969 -1.85738,-6.11187 c -0.0794,-0.26988 -0.36512,-0.42863 -0.65087,-0.42863 -0.39688,0 -0.71438,0.31751 -0.71438,0.71438 0,0.0953 0.0159,0.17462 0.0476,0.26987 l 2.25425,6.604 c 0.127,0.36513 0.49212,0.66676 0.92075,0.66676 0.42862,0 0.79375,-0.30163 0.93662,-0.68263 l 1.68275,-5.25462 1.68275,5.25462 c 0.14288,0.381 0.508,0.68263 0.93663,0.68263 0.42862,0 0.79375,-0.30163 0.92075,-0.66676 l 2.25425,-6.604 c 0.0318,-0.0953 0.0476,-0.17462 0.0476,-0.26987 0,-0.39687 -0.3175,-0.71438 -0.71437,-0.71438 z"
         style="font-size:15.875px;fill:#ffffff;stroke-width:0.26458332"
         id="path2184"
         inkscape:connector-curvature="0" />
      <path
         d="m 327.99711,264.9325 c -1.12713,0 -2.00025,0.254 -2.74638,0.5715 -0.26987,0.11112 -0.41275,0.33337 -0.41275,0.60325 0,0.34925 0.26988,0.60325 0.58738,0.60325 0.0635,0 0.14287,-0.0159 0.20637,-0.0318 0.58738,-0.1905 1.22238,-0.381 2.11138,-0.381 1.42875,0 2.12725,0.55563 2.12725,1.9685 v 0.127 h -1.92088 c -2.4765,0 -3.65125,1.0795 -3.65125,2.57175 0,1.49225 1.2065,2.38125 2.58763,2.38125 1.49225,0 2.413,-0.61913 2.9845,-1.2065 v 0.41275 c 0,0.39687 0.3175,0.71438 0.71437,0.71438 0.39688,0 0.73025,-0.31751 0.73025,-0.71438 v -4.49263 c 0,-1.55575 -1.00012,-3.12737 -3.31787,-3.12737 z m -0.5715,7.14375 c -1.28588,0 -1.68275,-0.58738 -1.68275,-1.27 0,-0.90488 0.90487,-1.25413 2.39712,-1.25413 h 1.73038 v 1.3335 c -0.53975,0.61913 -1.4605,1.19063 -2.44475,1.19063 z"
         style="font-size:15.875px;fill:#ffffff;stroke-width:0.26458332"
         id="path2186"
         inkscape:connector-curvature="0" />
      <path
         d="m 338.15215,264.9325 c -1.41288,0 -2.286,0.73025 -2.95275,1.4605 v -0.65088 c 0,-0.41274 -0.33338,-0.73025 -0.73025,-0.73025 -0.39688,0 -0.71438,0.31751 -0.71438,0.73025 v 6.81038 c 0,0.39687 0.3175,0.71438 0.71438,0.71438 0.39687,0 0.73025,-0.31751 0.73025,-0.71438 V 267.79 c 0.635,-0.79375 1.4605,-1.524 2.6035,-1.524 1.23825,0 1.74625,0.73025 1.74625,1.93675 v 4.34975 c 0,0.39687 0.3175,0.71438 0.71437,0.71438 0.39688,0 0.73025,-0.31751 0.73025,-0.71438 v -4.5085 c 0,-1.69863 -1.03187,-3.1115 -2.84162,-3.1115 z"
         style="font-size:15.875px;fill:#ffffff;stroke-width:0.26458332"
         id="path2188"
         inkscape:connector-curvature="0" />
      <path
         d="m 346.77823,264.9325 c -1.92088,0 -3.84175,1.50812 -3.84175,4.20687 0,2.69875 1.92087,4.20688 3.84175,4.20688 1.11125,0 1.98437,-0.4445 2.71462,-1.2065 v 0.41275 c 0,0.39687 0.3175,0.71438 0.73025,0.71438 0.39688,0 0.71438,-0.31751 0.71438,-0.71438 v -10.30288 c 0,-0.41274 -0.3175,-0.73024 -0.71438,-0.73024 -0.41275,0 -0.73025,0.3175 -0.73025,0.73024 v 3.88938 c -0.73025,-0.762 -1.60337,-1.2065 -2.71462,-1.2065 z m 0.20637,7.06437 c -1.50812,0 -2.6035,-0.98424 -2.6035,-2.8575 0,-1.87325 1.09538,-2.85749 2.6035,-2.85749 1.03188,0 1.88913,0.50799 2.50825,1.19062 v 3.33375 c -0.61912,0.68262 -1.47637,1.19062 -2.50825,1.19062 z"
         style="font-size:15.875px;fill:#ffffff;stroke-width:0.26458332"
         id="path2190"
         inkscape:connector-curvature="0" />
      <path
         d="m 359.63474,271.44125 c -0.11112,0 -0.1905,0.0159 -0.28575,0.0635 -0.58737,0.30162 -1.19062,0.49212 -2.14312,0.49212 -1.7145,0 -2.61938,-0.92075 -2.77813,-2.3495 h 5.38163 c 0.4445,0 0.73025,-0.31749 0.73025,-0.71437 0,-2.11138 -1.3335,-4.0005 -3.77825,-4.0005 -2.63525,0 -3.79413,2.06375 -3.79413,4.20687 0,2.667 1.524,4.20688 4.11163,4.20688 1.38112,0 2.07962,-0.30163 2.77812,-0.6985 0.22225,-0.127 0.41275,-0.33338 0.41275,-0.58737 0,-0.36513 -0.30162,-0.61913 -0.635,-0.61913 z m -2.87337,-5.28638 c 1.016,0 2.25425,0.66675 2.3495,2.31775 h -4.68313 c 0.0953,-1.651 1.31763,-2.31775 2.33363,-2.31775 z"
         style="font-size:15.875px;fill:#ffffff;stroke-width:0.26458332"
         id="path2192"
         inkscape:connector-curvature="0" />
      <path
         d="m 363.33858,261.51938 c -0.39687,0 -0.71437,0.3175 -0.71437,0.73024 v 10.30288 c 0,0.39687 0.3175,0.71438 0.71437,0.71438 0.41275,0 0.73025,-0.31751 0.73025,-0.71438 v -10.30288 c 0,-0.41274 -0.3175,-0.73024 -0.73025,-0.73024 z"
         style="font-size:15.875px;fill:#ffffff;stroke-width:0.26458332"
         id="path2194"
         inkscape:connector-curvature="0" />
      <path
         d="m 371.61566,265.01187 c -0.39688,0 -0.71438,0.31751 -0.71438,0.73025 v 6.81038 c 0,0.39687 0.3175,0.71438 0.71438,0.71438 0.41275,0 0.73025,-0.31751 0.73025,-0.71438 v -6.81038 c 0,-0.41274 -0.3175,-0.73025 -0.73025,-0.73025 z m 0.87312,-2.44475 c 0,-0.4445 -0.36512,-0.80962 -0.80962,-0.80962 -0.0318,0 -0.0635,0 -0.0953,0 -0.4445,0 -0.80963,0.36512 -0.80963,0.80962 0,0.0476 0,0.0476 0,0.0635 0,0.44451 0.36513,0.80963 0.80963,0.80963 0.0635,0 0.0794,0 0.0953,0 0.4445,0 0.80962,-0.36512 0.80962,-0.80963 0,-0.0159 0,-0.0476 0,-0.0635 z"
         style="font-size:15.875px;fill:#ffffff;stroke-width:0.26458332"
         id="path2196"
         inkscape:connector-curvature="0" />
      <path
         d="m 379.32793,264.9325 c -1.41288,0 -2.286,0.73025 -2.95275,1.4605 v -0.65088 c 0,-0.41274 -0.33338,-0.73025 -0.73025,-0.73025 -0.39688,0 -0.71438,0.31751 -0.71438,0.73025 v 6.81038 c 0,0.39687 0.3175,0.71438 0.71438,0.71438 0.39687,0 0.73025,-0.31751 0.73025,-0.71438 V 267.79 c 0.635,-0.79375 1.4605,-1.524 2.6035,-1.524 1.23825,0 1.74625,0.73025 1.74625,1.93675 v 4.34975 c 0,0.39687 0.3175,0.71438 0.71437,0.71438 0.39688,0 0.73025,-0.31751 0.73025,-0.71438 v -4.5085 c 0,-1.69863 -1.03187,-3.1115 -2.84162,-3.1115 z"
         style="font-size:15.875px;fill:#ffffff;stroke-width:0.26458332"
         id="path2198"
         inkscape:connector-curvature="0" />
      <path
         d="m 389.56954,261.51938 c -0.39688,0 -0.71438,0.3175 -0.71438,0.73024 v 10.30288 c 0,0.39687 0.3175,0.71438 0.71438,0.71438 0.41275,0 0.73025,-0.31751 0.73025,-0.71438 v -10.30288 c 0,-0.41274 -0.3175,-0.73024 -0.73025,-0.73024 z"
         style="font-size:15.875px;fill:#ffffff;stroke-width:0.26458332"
         id="path2200"
         inkscape:connector-curvature="0" />
      <path
         d="m 399.13621,271.44125 c -0.11113,0 -0.1905,0.0159 -0.28575,0.0635 -0.58738,0.30162 -1.19063,0.49212 -2.14313,0.49212 -1.7145,0 -2.61937,-0.92075 -2.77812,-2.3495 h 5.38162 c 0.4445,0 0.73025,-0.31749 0.73025,-0.71437 0,-2.11138 -1.3335,-4.0005 -3.77825,-4.0005 -2.63525,0 -3.79412,2.06375 -3.79412,4.20687 0,2.667 1.524,4.20688 4.11162,4.20688 1.38113,0 2.07963,-0.30163 2.77813,-0.6985 0.22225,-0.127 0.41275,-0.33338 0.41275,-0.58737 0,-0.36513 -0.30163,-0.61913 -0.635,-0.61913 z m -2.87338,-5.28638 c 1.016,0 2.25425,0.66675 2.3495,2.31775 h -4.68312 c 0.0952,-1.651 1.31762,-2.31775 2.33362,-2.31775 z"
         style="font-size:15.875px;fill:#ffffff;stroke-width:0.26458332"
         id="path2202"
         inkscape:connector-curvature="0" />
      <path
         d="m 402.77654,265.01187 c -0.39687,0 -0.71437,0.31751 -0.71437,0.73025 v 6.81038 c 0,0.39687 0.3175,0.71438 0.71437,0.71438 0.41275,0 0.73025,-0.31751 0.73025,-0.71438 v -6.81038 c 0,-0.41274 -0.3175,-0.73025 -0.73025,-0.73025 z m 0.87313,-2.44475 c 0,-0.4445 -0.36513,-0.80962 -0.80963,-0.80962 -0.0317,0 -0.0635,0 -0.0952,0 -0.4445,0 -0.80962,0.36512 -0.80962,0.80962 0,0.0476 0,0.0476 0,0.0635 0,0.44451 0.36512,0.80963 0.80962,0.80963 0.0635,0 0.0794,0 0.0952,0 0.4445,0 0.80963,-0.36512 0.80963,-0.80963 0,-0.0159 0,-0.0476 0,-0.0635 z"
         style="font-size:15.875px;fill:#ffffff;stroke-width:0.26458332"
         id="path2204"
         inkscape:connector-curvature="0" />
      <path
         d="m 410.25069,273.34625 c 1.92088,0 3.84175,-1.50813 3.84175,-4.20688 0,-2.69875 -1.92087,-4.20687 -3.84175,-4.20687 -1.11125,0 -1.98437,0.4445 -2.71462,1.2065 v -0.41275 c 0,-0.39687 -0.3175,-0.71438 -0.73025,-0.71438 -0.39688,0 -0.71438,0.31751 -0.71438,0.71438 v 10.46163 c 0,0.41274 0.3175,0.73024 0.71438,0.73024 0.41275,0 0.73025,-0.3175 0.73025,-0.73024 v -4.04813 c 0.73025,0.762 1.60337,1.2065 2.71462,1.2065 z m -0.20637,-7.06437 c 1.50812,0 2.6035,0.98424 2.6035,2.85749 0,1.87326 -1.09538,2.8575 -2.6035,2.8575 -1.03188,0 -1.88913,-0.508 -2.50825,-1.19062 v -3.33375 c 0.61912,-0.68263 1.47637,-1.19062 2.50825,-1.19062 z"
         style="font-size:15.875px;fill:#ffffff;stroke-width:0.26458332"
         id="path2206"
         inkscape:connector-curvature="0" />
      <path
         d="m 422.10709,272.52075 c 0,-0.381 -0.30163,-0.68263 -0.68263,-0.68263 h -4.07987 l 4.445,-5.207 c 0.14287,-0.17462 0.22225,-0.38099 0.22225,-0.635 0,-0.53975 -0.381,-0.90487 -0.92075,-0.90487 h -4.81013 c -0.381,0 -0.66675,0.30162 -0.66675,0.68262 0,0.381 0.28575,0.66675 0.66675,0.66675 h 4.01638 l -4.572,5.25463 c -0.15875,0.17462 -0.254,0.39687 -0.254,0.65087 0,0.55563 0.4445,0.84138 1.00012,0.84138 h 4.953 c 0.381,0 0.68263,-0.28575 0.68263,-0.66675 z"
         style="font-size:15.875px;fill:#ffffff;stroke-width:0.26458332"
         id="path2208"
         inkscape:connector-curvature="0" />
      <path
         d="m 424.79071,265.01187 c -0.39688,0 -0.71438,0.31751 -0.71438,0.73025 v 6.81038 c 0,0.39687 0.3175,0.71438 0.71438,0.71438 0.41275,0 0.73025,-0.31751 0.73025,-0.71438 v -6.81038 c 0,-0.41274 -0.3175,-0.73025 -0.73025,-0.73025 z m 0.87312,-2.44475 c 0,-0.4445 -0.36512,-0.80962 -0.80962,-0.80962 -0.0318,0 -0.0635,0 -0.0953,0 -0.4445,0 -0.80963,0.36512 -0.80963,0.80962 0,0.0476 0,0.0476 0,0.0635 0,0.44451 0.36513,0.80963 0.80963,0.80963 0.0635,0 0.0794,0 0.0953,0 0.4445,0 0.80962,-0.36512 0.80962,-0.80963 0,-0.0159 0,-0.0476 0,-0.0635 z"
         style="font-size:15.875px;fill:#ffffff;stroke-width:0.26458332"
         id="path2210"
         inkscape:connector-curvature="0" />
      <path
         d="m 434.88423,265.01187 c -0.39688,0 -0.71438,0.33338 -0.71438,0.73025 v 0.39688 c -0.65087,-0.6985 -1.524,-1.2065 -2.71462,-1.2065 -1.76213,0 -3.84175,1.31763 -3.84175,4.1275 0,2.80987 2.07962,4.1275 3.84175,4.1275 1.19062,0 2.06375,-0.508 2.71462,-1.2065 v 1.06362 c 0,1.7145 -0.80962,2.58763 -2.42887,2.58763 -1.0795,0 -1.95263,-0.26988 -2.61938,-0.60325 -0.0794,-0.0317 -0.17462,-0.0635 -0.28575,-0.0635 -0.36512,0 -0.635,0.33337 -0.635,0.65087 0,0.30163 0.127,0.46038 0.28575,0.55563 0.74613,0.42862 2.11138,0.8255 3.39725,0.8255 2.38125,0 3.73063,-1.49225 3.73063,-4.15925 v -7.09613 c 0,-0.39687 -0.33338,-0.73025 -0.73025,-0.73025 z m -0.71438,5.68326 c -0.58737,0.60325 -1.31762,1.17474 -2.413,1.17474 -1.50812,0 -2.69875,-0.90487 -2.69875,-2.80987 0,-1.905 1.19063,-2.80987 2.69875,-2.80987 1.09538,0 1.82563,0.57149 2.413,1.17474 z"
         style="font-size:15.875px;fill:#ffffff;stroke-width:0.26458332"
         id="path2212"
         inkscape:connector-curvature="0" />
    </g>
  </g>
</svg>
